-------------------------------------------------------------------------------
Test set: by.training.kko.parsers.TextParserTest
-------------------------------------------------------------------------------
Tests run: 1, Failures: 0, Errors: 0, Skipped: 0, Time elapsed: 0.099 sec
