repository\WorkerRepository.class
repository\SortByNameSpecification.class
repository\Repository.class
parsers\Parser.class
validator\ValidationMessage.class
validator\ValidatorResult.class
validator\DataValidator.class
validator\FileValidator.class
repository\WorkerSpecification.class
repository\FindWorkerBySalarySpecification.class
repository\SortByNameAndBySalarySpecification.class
repository\FindSpecification.class
repository\SpecificationException.class
repository\Specification.class
repository\SortSpecification.class
